Markdown example
…
71158647

71.777

8458.276

Paged table

paged_table(euro_data_tbl)

Default table - ugly, don’t use

euro_data_tbl

## # A tibble: 30 × 4
##    Country     `Population Size` `Life Expectancy`    GDP
##    <chr>                   <dbl>             <dbl>  <dbl>
##  1 Iceland                301931              81.8 36181.
##  2 Switzerland           7554661              81.7 37506.
##  3 Spain                40448191              80.9 28821.
##  4 Sweden                9031088              80.9 33860.
##  5 France               61083916              80.7 30470.
##  6 Italy                58147733              80.5 28570.
##  7 Norway                4627926              80.2 49357.
##  8 Austria               8199783              79.8 36126.
##  9 Netherlands          16570613              79.8 36798.
## 10 Greece               10706290              79.5 27538.
## # ℹ 20 more rows
…
